#Command: "C:\Program Files (x86)\Microsoft Visual Studio\2017\Community\VC\Tools\MSVC\14.16.27023\bin\HostX86\x86\link.exe" /ERRORREPORT:PROMPT @C:\Users\manzick\AppData\Local\Temp\tmpd50922fe556d448a8272d2b37e1e88de.rsp
^C:\USERS\MANZICK\DESKTOP\ЧМЛР3\ЧМЛР3\DEBUG\ALGLIBINTERNAL.OBJ|C:\USERS\MANZICK\DESKTOP\ЧМЛР3\ЧМЛР3\DEBUG\ALGLIBMISC.OBJ|C:\USERS\MANZICK\DESKTOP\ЧМЛР3\ЧМЛР3\DEBUG\AP.OBJ|C:\USERS\MANZICK\DESKTOP\ЧМЛР3\ЧМЛР3\DEBUG\DATAANALYSIS.OBJ|C:\USERS\MANZICK\DESKTOP\ЧМЛР3\ЧМЛР3\DEBUG\DIFFEQUATIONS.OBJ|C:\USERS\MANZICK\DESKTOP\ЧМЛР3\ЧМЛР3\DEBUG\FASTTRANSFORMS.OBJ|C:\USERS\MANZICK\DESKTOP\ЧМЛР3\ЧМЛР3\DEBUG\INTEGRATION.OBJ|C:\USERS\MANZICK\DESKTOP\ЧМЛР3\ЧМЛР3\DEBUG\INTERPOLATION.OBJ|C:\USERS\MANZICK\DESKTOP\ЧМЛР3\ЧМЛР3\DEBUG\LINALG.OBJ|C:\USERS\MANZICK\DESKTOP\ЧМЛР3\ЧМЛР3\DEBUG\OPTIMIZATION.OBJ|C:\USERS\MANZICK\DESKTOP\ЧМЛР3\ЧМЛР3\DEBUG\SOLVERS.OBJ|C:\USERS\MANZICK\DESKTOP\ЧМЛР3\ЧМЛР3\DEBUG\SOURCE.OBJ|C:\USERS\MANZICK\DESKTOP\ЧМЛР3\ЧМЛР3\DEBUG\SPECIALFUNCTIONS.OBJ|C:\USERS\MANZICK\DESKTOP\ЧМЛР3\ЧМЛР3\DEBUG\STATISTICS.OBJ
C:\USERS\MANZICK\DESKTOP\ЧМЛР3\DEBUG\ЧМЛР3.PDB
